<?xml version="1.0" standalone="no"?>
<!DOCTYPE svg PUBLIC "-//W3C//DTD SVG 1.1//EN" "http://www.w3.org/Graphics/SVG/1.1/DTD/svg11.dtd" >
<svg xmlns="http://www.w3.org/2000/svg">
<metadata>Generated by IcoMoon</metadata>
<defs>
<font id="icomoon" horiz-adv-x="1024">
<font-face units-per-em="1024" ascent="960" descent="-64" />
<missing-glyph horiz-adv-x="1024" />
<glyph unicode="&#x20;" horiz-adv-x="512" d="" />
<glyph unicode="&#xe900;" glyph-name="calendar" d="M237.568 56.832c-51.2 0-96.256 43.008-96.256 96.256v411.648h690.176v-221.184c26.624-4.096 47.104-16.384 69.632-30.72v456.704c0 30.72-26.624 57.344-57.344 57.344v0 28.672c0 57.344-47.104 100.352-104.448 100.352s-104.448-43.008-104.448-100.352v-22.528h-47.104v22.528c0 57.344-47.104 100.352-104.448 100.352s-104.448-43.008-104.448-100.352v-22.528h-47.104v22.528c0 57.344-47.104 100.352-104.448 100.352s-102.4-43.008-102.4-100.352v-22.528c-30.72 0-57.344-26.624-57.344-57.344v-620.544c0-92.16 73.728-165.888 169.984-165.888h325.632c-12.288 22.528-22.528 43.008-30.72 69.632h-294.912v-2.048zM710.656 855.552c0 16.384 12.288 30.72 34.816 30.72 16.384 0 30.72-12.288 30.72-30.72v-116.736c0-16.384-12.288-30.72-30.72-30.72v0c-16.384 0-30.72 12.288-30.72 30.72v116.736h-4.096zM454.656 855.552c0 16.384 12.288 30.72 34.816 30.72 16.384 0 30.72-12.288 30.72-30.72v-116.736c0-16.384-12.288-30.72-30.72-30.72v0c-16.384 0-30.72 12.288-30.72 30.72v116.736h-4.096zM202.752 855.552c0 16.384 12.288 30.72 34.816 30.72 16.384 0 30.72-12.288 30.72-30.72v-116.736c0-16.384-12.288-30.72-30.72-30.72v0c-16.384 0-30.72 12.288-30.72 30.72v116.736h-4.096zM776.192 282.112c-96.256 0-174.080-73.728-174.080-169.984s77.824-169.984 174.080-169.984 174.080 73.728 174.080 169.984-77.824 169.984-174.080 169.984zM841.728 73.216c-4.096-4.096-8.192-8.192-12.288-8.192s-4.096 0-8.192 4.096l-53.248 30.72c-4.096 4.096-8.192 8.192-8.192 12.288v100.352c0 8.192 8.192 16.384 16.384 16.384s16.384-8.192 16.384-16.384v-92.16l43.008-26.624c10.24-2.048 14.336-12.288 6.144-20.48zM536.576 321.024v0c43.008 16.384 65.536 43.008 65.536 81.92 0 47.104-43.008 86.016-116.736 86.016-34.816 0-69.632-8.192-96.256-16.384-8.192-4.096-12.288-12.288-8.192-22.528l8.192-22.528c0-4.096 4.096-8.192 8.192-12.288s8.192-4.096 16.384 0c16.384 4.096 34.816 12.288 57.344 12.288 34.816 0 51.2-16.384 51.2-34.816 0-30.72-34.816-38.912-65.536-38.912h-12.288c-8.192 0-16.384-8.192-16.384-16.384v-22.528c0-8.192 8.192-16.384 16.384-16.384h12.288c34.816 0 69.632-16.384 69.632-47.104 0-26.624-22.528-47.104-65.536-47.104-22.528 0-47.104 4.096-61.44 12.288-4.096 0-8.192 0-16.384 0-4.096-4.096-8.192-8.192-8.192-12.288l-6.144-26.624c-4.096-8.192 0-16.384 8.192-22.528 22.528-8.192 51.2-16.384 92.16-16.384 26.624 0 43.008 4.096 65.536 8.192 8.192 51.2 30.72 100.352 69.632 139.264-18.432 18.432-40.96 30.72-67.584 34.816z" />
<glyph unicode="&#xe901;" glyph-name="config" d="M880.64 564.736l-26.624 61.44c0 0 61.44 135.168 53.248 143.36l-77.824 77.824c-4.096 4.096-139.264-57.344-139.264-57.344l-61.44 26.624c0 0-57.344 139.264-61.44 139.264h-112.64c-8.192 0-57.344-139.264-57.344-139.264l-61.44-26.624c0 0-135.168 61.44-143.36 53.248l-79.872-77.824c-4.096-4.096 57.344-139.264 57.344-139.264l-26.624-61.44c0 0-139.264-57.344-139.264-61.44v-112.64c0-8.192 139.264-57.344 139.264-57.344l26.624-61.44c0 0-61.44-135.168-53.248-143.36l77.824-77.824c4.096-4.096 139.264 57.344 139.264 57.344l61.44-26.624c0 0 57.344-139.264 61.44-139.264h112.64c8.192 0 57.344 139.264 57.344 139.264l61.44 26.624c0 0 135.168-61.44 143.36-53.248l77.824 77.824c4.096 4.096-57.344 139.264-57.344 139.264l26.624 61.44c0 0 139.264 57.344 139.264 61.44v112.64c-2.048 4.096-137.216 57.344-137.216 57.344zM675.84 445.952c0-92.16-73.728-161.792-161.792-161.792-92.16 0-161.792 73.728-161.792 161.792 0 92.16 73.728 161.792 161.792 161.792s161.792-69.632 161.792-161.792z" />
<glyph unicode="&#xe902;" glyph-name="deshabilitar" d="M333.824 448l-290.816-290.816c-47.104-47.104-47.104-124.928 0-178.176 47.104-47.104 124.928-47.104 178.176 0l290.816 290.816 290.816-290.816c47.104-47.104 124.928-47.104 178.176 0 47.104 47.104 47.104 124.928 0 178.176l-290.816 290.816 290.816 290.816c47.104 47.104 47.104 124.928 0 178.176-47.104 47.104-124.928 47.104-178.176 0l-290.816-290.816-290.816 290.816c-47.104 47.104-124.928 47.104-178.176 0-47.104-47.104-47.104-124.928 0-178.176l290.816-290.816z" />
<glyph unicode="&#xe903;" glyph-name="edit" d="M997.376 566.784l-57.344-57.344-163.84 159.744 57.344 57.344c16.384 16.384 45.056 22.528 63.488 6.144l108.544-102.4c14.336-18.432 14.336-47.104-8.192-63.488zM747.52 644.608l163.84-159.744-391.168-378.88c0 0-6.144-6.144-12.288-6.144v0l-204.8-67.584c-6.144 0-12.288 0-16.384 6.144-6.144 6.144-6.144 12.288-6.144 16.384l63.488 198.656c0 6.144 6.144 12.288 12.288 12.288l73.728 73.728h-249.856c-12.288 0-16.384 6.144-16.384 16.384 0 12.288 6.144 16.384 16.384 16.384h284.672l282.624 272.384zM475.136 118.272l-102.4 96.256-28.672-79.872 45.056-38.912 86.016 22.528zM741.376 577.024c-6.144 6.144-16.384 6.144-22.528 0l-301.056-294.912c-6.144-6.144-6.144-16.384 0-22.528s16.384-6.144 22.528 0l301.056 294.912c6.144 12.288 6.144 16.384 0 22.528zM724.992 15.872c0-12.288-12.288-16.384-16.384-16.384h-358.4l-34.816-12.288c-6.144 0-12.288-6.144-16.384-6.144-16.384 0-28.672 6.144-38.912 12.288h-188.416c-12.288 0-16.384 12.288-16.384 16.384v811.008c0 12.288 12.288 16.384 16.384 16.384h73.728v-28.672c0-12.288 12.288-16.384 16.384-16.384 12.288 0 16.384 12.288 16.384 16.384v30.72h112.64v-28.672c0-12.288 12.288-16.384 16.384-16.384s20.48 10.24 20.48 16.384v28.672h96.256v-28.672c0-12.288 12.288-16.384 16.384-16.384 12.288 0 16.384 12.288 16.384 16.384v28.672h108.544v-28.672c0-12.288 12.288-16.384 16.384-16.384 12.288 0 16.384 12.288 16.384 16.384v28.672h86.016c12.288 0 16.384-12.288 16.384-16.384v-131.072l61.44 61.44v67.584c0 38.912-34.816 73.728-79.872 73.728h-86.016v47.104c0 12.288-12.288 16.384-16.384 16.384-12.288 0-16.384-12.288-16.384-16.384v-45.056h-90.112v45.056c0 12.288-12.288 16.384-16.384 16.384-12.288 0-16.384-12.288-16.384-16.384v-45.056h-96.256v45.056c0 12.288-12.288 16.384-16.384 16.384-12.288 0-16.384-12.288-16.384-16.384v-45.056h-114.688v45.056c0 12.288-12.288 16.384-16.384 16.384-12.288 0-16.384-12.288-16.384-16.384v-45.056h-75.776c-45.056 0-79.872-34.816-79.872-73.728v-806.912c0-38.912 34.816-73.728 79.872-73.728h636.928c45.056 0 79.872 34.816 79.872 73.728v276.48l-57.344-57.344-22.528-219.136zM571.392 669.184h-385.024c-12.288 0-16.384-6.144-16.384-16.384 0-12.288 6.144-16.384 16.384-16.384h387.072c12.288 0 16.384 6.144 16.384 16.384s-6.144 16.384-18.432 16.384zM571.392 525.824h-385.024c-12.288 0-16.384-6.144-16.384-16.384 0-12.288 6.144-16.384 16.384-16.384h387.072c12.288 0 16.384 6.144 16.384 16.384s-6.144 16.384-18.432 16.384z" />
<glyph unicode="&#xe904;" glyph-name="file" d="M972.8 790.016h-499.712c0 0-22.528 98.304-98.304 98.304s-268.288 0-268.288 0-65.536 22.528-65.536-200.704h935.936v102.4h-4.096zM1007.616 585.216c-192.512 0-1003.52 0-1003.52 0s-8.192-266.24 36.864-569.344c137.216 0 935.936 0 935.936 0s36.864 333.824 30.72 569.344z" />
<glyph unicode="&#xe905;" glyph-name="lock" d="M755.712 513.536v194.56c0 139.264-112.64 251.904-251.904 251.904s-253.952-112.64-253.952-253.952v-194.56c-69.632 0-124.928-59.392-124.928-129.024v-317.44c0-69.632 53.248-129.024 124.928-129.024h501.76c69.632 0 124.928 59.392 124.928 129.024v317.44c4.096 71.68-49.152 131.072-120.832 131.072zM536.576 200.192v-108.544c0-16.384-16.384-32.768-32.768-32.768s-32.768 16.384-32.768 32.768v108.544c-16.384 10.24-32.768 32.768-32.768 53.248 0 36.864 26.624 65.536 65.536 65.536 32.768 0 65.536-26.624 65.536-65.536-2.048-20.48-18.432-43.008-32.768-53.248zM626.688 513.536h-251.904v194.56c0 69.632 53.248 129.024 124.928 129.024s124.928-59.392 124.928-129.024v-194.56h2.048z" />
<glyph unicode="&#xe906;" glyph-name="print" d="M251.904 894.464h509.952v-129.024h63.488v129.024c0 36.864-26.624 63.488-63.488 63.488h-509.952c-36.864 0-63.488-26.624-63.488-63.488v-129.024h63.488v129.024zM956.416 706.048h-892.928c-36.864 0-63.488-26.624-63.488-63.488v-317.44c0-36.864 26.624-63.488 63.488-63.488h129.024v-258.048c0-36.864 26.624-63.488 63.488-63.488h509.952c36.864 0 63.488 26.624 63.488 63.488v256h133.12c36.864 0 63.488 26.624 63.488 63.488v317.44c-6.144 32.768-32.768 65.536-69.632 65.536zM761.856 1.536h-509.952v446.464h509.952v-446.464zM890.88 511.488c-36.864 0-63.488 26.624-63.488 63.488s26.624 63.488 63.488 63.488 63.488-26.624 63.488-63.488-24.576-63.488-63.488-63.488zM575.488 384.512h-258.048v-63.488h258.048v63.488zM704.512 255.488h-382.976v-63.488h380.928v63.488zM704.512 130.56h-382.976v-63.488h380.928v63.488z" />
<glyph unicode="&#xe907;" glyph-name="time-01" d="M512 962.048c-282.624 0-512-229.376-512-512s229.376-512 512-512 512 229.376 512 512c4.096 282.624-229.376 512-512 512zM512 46.592c-223.232 0-403.456 180.224-403.456 403.456s180.224 405.504 403.456 405.504 403.456-180.224 403.456-403.456-180.224-405.504-403.456-405.504zM788.48 464.384h-198.656c-4.096 10.24-20.48 20.48-28.672 28.672v239.616c0 24.576-20.48 43.008-43.008 43.008-24.576 0-43.008-20.48-43.008-43.008v-237.568c-24.576-14.336-43.008-43.008-43.008-73.728 0-49.152 38.912-88.064 88.064-88.064 28.672 0 59.392 14.336 73.728 43.008h198.656c24.576 0 43.008 20.48 43.008 43.008s-22.528 45.056-47.104 45.056z" />
<glyph unicode="&#xe908;" glyph-name="urgente" d="M512 955.904c-278.528 0-507.904-229.376-507.904-507.904s229.376-505.856 507.904-505.856 505.856 229.376 505.856 505.856-229.376 507.904-505.856 507.904zM512 124.416c-40.96 0-65.536 30.72-65.536 71.68s30.72 71.68 65.536 71.68c40.96 0 65.536-30.72 65.536-71.68s-26.624-71.68-65.536-71.68zM536.576 392.704c-10.24-34.816-40.96-34.816-51.2 0-10.24 40.96-55.296 192.512-55.296 292.864 0 131.072 161.792 131.072 161.792 0 0-100.352-45.056-256-55.296-292.864z" />
<glyph unicode="&#xe909;" glyph-name="user-01" d="M509.952 361.984c-147.456 0-270.336 137.216-270.336 309.248s122.88 299.008 270.336 299.008 270.336-126.976 270.336-299.008-122.88-309.248-270.336-309.248zM92.16-59.904c0 0-59.392-4.096-83.968 28.672-14.336 20.48-4.096 53.248 4.096 73.728l24.576 49.152c0 0 63.488 137.216 133.12 217.088 45.056 49.152 98.304 38.912 133.12 20.48 20.48-10.24 45.056-38.912 63.488-53.248 24.576-20.48 63.488-45.056 133.12-45.056h45.056c69.632 0 108.544 24.576 133.12 45.056 20.48 14.336 38.912 45.056 59.392 53.248 28.672 14.336 77.824 24.576 122.88-24.576 73.728-77.824 126.976-217.088 126.976-217.088l24.576-49.152c10.24-20.48 20.48-59.392 4.096-73.728-24.576-34.816-77.824-28.672-77.824-28.672h-845.824v4.096z" />
<glyph unicode="&#xe90a;" glyph-name="ver" d="M512 765.44c-219.136 0-411.648-122.88-503.808-307.2 92.16-184.32 284.672-307.2 503.808-307.2s411.648 122.88 503.808 307.2c-92.16 184.32-284.672 307.2-503.808 307.2zM761.856 603.648c61.44-34.816 110.592-88.064 149.504-145.408-38.912-57.344-88.064-104.448-149.504-145.408-73.728-43.008-161.792-69.632-249.856-69.632s-176.128 26.624-249.856 69.632c-61.44 34.816-110.592 88.064-149.504 145.408 38.912 57.344 88.064 104.448 149.504 145.408 4.096 4.096 8.192 4.096 12.288 8.192-8.192-26.624-12.288-53.248-12.288-83.968 0-135.168 114.688-245.76 253.952-245.76s249.856 110.592 249.856 245.76c0 30.72-4.096 57.344-12.288 83.968 0-4.096 4.096-8.192 8.192-8.192zM512 554.496c0-53.248-43.008-92.16-96.256-92.16s-96.256 38.912-96.256 92.16 43.008 92.16 96.256 92.16c53.248 0 96.256-38.912 96.256-92.16z" />
</font></defs></svg>